-56 -24 896
-16 8 -80 16 -48 -72 704
-56 928
-88 -48 -72 -24 -88 -40 584
992
-16 968
16 -8 952
-64 -72 16 -8 -72 720
-32 -64 -64 808
-56 -80 -24 -64 -40 -32 -40 600
-8 -32 936
-40 -56 880
-80 -64 -56 -72 -88 -56 -64 456
-64 -24 24 -32 -32 88 -24 648
-88 -16 -48 -24 784
